<svg xmlns="http://www.w3.org/2000/svg" width="12" height="10.754" viewBox="0 0 12 10.754">
  <g id="Group_475" data-name="Group 475" transform="translate(-10.985 -15.035)" opacity="0.501">
    <g id="Path_169" data-name="Path 169" transform="translate(0)" fill="none">
      <path d="M14.178,15.035a3.118,3.118,0,0,0-2.264.971,3.406,3.406,0,0,0,0,4.676l4.734,4.964a.461.461,0,0,0,.652.016l.016-.016,4.739-4.96a3.4,3.4,0,0,0,0-4.676,3.118,3.118,0,0,0-4.527,0l-.543.562-.543-.567A3.117,3.117,0,0,0,14.178,15.035Z" stroke="none"/>
      <path d="M 14.17818641662598 16.03500175476074 C 13.59241676330566 16.03500175476074 13.0452766418457 16.26996040344238 12.63758659362793 16.69656181335449 C 11.77055549621582 17.60391044616699 11.77087593078613 19.08215141296387 12.6383056640625 19.99181175231934 L 16.98281097412109 24.54787254333496 L 21.33202743530273 19.99582099914551 C 22.19991683959961 19.08757019042969 22.19991683959961 17.6097412109375 21.33198547363281 16.70144081115723 C 20.92269515991211 16.2730712890625 20.37557601928711 16.03715133666992 19.79141616821289 16.03715133666992 C 19.20725631713867 16.03715133666992 18.6601448059082 16.2730712890625 18.25085639953613 16.70144081115723 L 18.24712562561035 16.70532035827637 L 16.98166656494141 18.01559066772461 L 15.71884536743164 16.69661140441895 C 15.31110572814941 16.26996040344238 14.76395606994629 16.03500175476074 14.17818641662598 16.03500175476074 M 14.17818641662598 15.03500175476074 C 15.00002670288086 15.03500175476074 15.82171630859375 15.35688018798828 16.44178581237793 16.00570106506348 L 16.98480606079102 16.5728702545166 L 17.5278263092041 16.0106201171875 C 18.76796531677246 14.71266174316406 20.81487655639648 14.71266174316406 22.05501556396484 16.0106201171875 C 23.29515647888184 17.30844116210938 23.29515647888184 19.38887023925781 22.05501556396484 20.68668174743652 C 20.47592544555664 22.33927154541016 18.89546585083008 23.99371147155762 17.31637573242188 25.64631080627441 C 17.3112964630127 25.65169143676758 17.30606651306152 25.65693092346191 17.30068588256836 25.66200065612793 C 17.11629676818848 25.83778190612793 16.82425498962402 25.83071136474609 16.64847564697266 25.64631080627441 L 11.91459655761719 20.68191146850586 C 10.67614555358887 19.38317108154297 10.6744556427002 17.30351066589355 11.91459655761719 16.00570106506348 C 12.5346565246582 15.35688018798828 13.35650634765625 15.03500175476074 14.17818641662598 15.03500175476074 Z" stroke="none" fill="#000"/>
    </g>
  </g>
</svg>
