<svg xmlns="http://www.w3.org/2000/svg" width="38.227" height="36.364" viewBox="0 0 38.227 36.364">
  <g id="Group_960" data-name="Group 960" transform="translate(-1457.93 -708.751)">
    <path id="Path_266" data-name="Path 266" d="M1461.424,724.407h-2.992v25.616h37.227V724.407h-3" transform="translate(-0.002 -8.114)" fill="none" stroke="#000" stroke-miterlimit="10" stroke-width="1"/>
    <line id="Line_174" data-name="Line 174" x1="37.229" transform="translate(1458.427 738.674)" fill="none" stroke="#000" stroke-miterlimit="10" stroke-width="1"/>
    <path id="Path_267" data-name="Path 267" d="M1498.489,738.674a20.809,20.809,0,0,1,15.619-7.033v-22.39a20.809,20.809,0,0,0-15.619,7.033" transform="translate(-21.447)" fill="none" stroke="#000" stroke-miterlimit="10" stroke-width="1"/>
    <path id="Path_268" data-name="Path 268" d="M1480.493,738.674a20.809,20.809,0,0,0-15.619-7.033v-22.39a20.809,20.809,0,0,1,15.619,7.033Z" transform="translate(-3.451)" fill="none" stroke="#000" stroke-miterlimit="10" stroke-width="1"/>
    <line id="Line_175" data-name="Line 175" y1="6.441" transform="translate(1477.042 738.674)" fill="none" stroke="#000" stroke-miterlimit="10" stroke-width="1"/>
  </g>
</svg>
