<svg xmlns="http://www.w3.org/2000/svg" width="14.41" height="14.438" viewBox="0 0 14.41 14.438">
  <g id="Group_2061" data-name="Group 2061" transform="translate(-87.5 -616.293)">
    <path id="Path_812" data-name="Path 812" d="M-14285.093-20840.2v-2.873l10.361-10.357,2.842,2.844-10.386,10.387Z" transform="translate(14373.093 21470.43)" fill="none" stroke="#707070" stroke-width="1"/>
    <path id="Path_813" data-name="Path 813" d="M-14279.15-20833.521l-4.85-4.85-5,5" transform="translate(14378.129 21455.492)" fill="none" stroke="#707070" stroke-width="1"/>
  </g>
</svg>
