<svg xmlns="http://www.w3.org/2000/svg" width="6.061" height="10.707" viewBox="0 0 6.061 10.707">
  <path id="Path_787" data-name="Path 787" d="M-13065.335-16213.561l5,5-5,5" transform="translate(-13059.628 -16203.207) rotate(180)" fill="none" stroke="#000" stroke-width="1"/>
</svg>
